EDI_SEDOL_20150508
TableName	Actflag	Created	Changed	SedolId	SecID	ISIN	CntryCD	Sedol	Defunct	RcntryCD
SEDOL	U	2010/03/18	2015/05/08	554786	1840353	US171871AM82	ZZ	B3LV2R3	T	US
SEDOL	U	2011/11/26	2015/05/08	1291881	3305748	US68620QAB59	US	B67SCJ1	T	ZZ
SEDOL	U	2013/05/01	2015/05/08	1431370	4025860	US75886AAH14	ZZ	B8GJG08	T	ZZ
SEDOL	U	2014/03/28	2015/05/08	1520159	4232277	US131477AM35	ZZ	BL10MP4	T	ZZ
SEDOL	U	2015/01/16	2015/05/08	1598118	4426411	DE000A13ST10	DE	BV8VNB3	T	ZZ
SEDOL	U	2015/04/08	2015/05/08	1616524	3753534	XS0778071877	LU	BVGGXQ5	T	ZZ
SEDOL	U	2015/04/10	2015/05/08	1617154	4484851	XS1218432349	DE	BWV6PM7	F	ZZ
SEDOL	U	2015/04/25	2015/05/08	1627313	4497142	US64952XBU46	DE	BWXTX64	F	US
SEDOL	U	2015/04/28	2015/05/08	1628091	4498963	US302635AC17	US	BX7RT85	F	US
SEDOL	U	2015/04/28	2015/05/08	1628094	4498937	US713448CS53	US	BX7RTL8	F	US
SEDOL	U	2015/04/28	2015/05/08	1628101	4498918	US713448CT37	US	BWSSM70	F	US
SEDOL	U	2015/04/28	2015/05/08	1628108	4498955	US713448CU00	DE	BWSSM81	F	US
SEDOL	U	2015/04/28	2015/05/08	1628113	4498950	US713448CR70	US	BWSSM69	F	US
SEDOL	U	2015/04/28	2015/05/08	1628117	4498887	US882508AZ72	DE	BX7RT41	F	US
SEDOL	U	2015/04/28	2015/05/08	1628118	4499119	US912828K668	DE	BWSSMB4	F	US
SEDOL	U	2015/04/29	2015/05/08	1628578	4500266	US68389XBB01	US	BWTM323	F	US
SEDOL	U	2015/04/29	2015/05/08	1628582	4499746	US031162BW91	DE	BWTM3C3	F	US
SEDOL	U	2015/04/29	2015/05/08	1628587	4499748	US031162BX74	DE	BWTM3D4	F	US
SEDOL	U	2015/05/04	2015/05/08	1629416	4433440	CND1000085L9	ZZ	BXB03Y4	T	ZZ
SEDOL	I	2015/05/08	2015/05/08	1630698	3565255	PTBEQHOM0014	PT	BXC7XS8	F	ZZ
SEDOL	I	2015/05/08	2015/05/08	1630699	4505445	XS1231289312	LU	BXC7W92	F	ZZ
SEDOL	I	2015/05/08	2015/05/08	1630700	4505442	HK0000250289	ZZ	BXC7WC5	F	ZZ
SEDOL	I	2015/05/08	2015/05/08	1630701	4505513	XS1232146412	LU	BXC7WZ8	F	ZZ
SEDOL	I	2015/05/08	2015/05/08	1630702	4505514	XS1232143310	LU	BXC7X00	F	ZZ
SEDOL	I	2015/05/08	2015/05/08	1630703	4496379	US00206RCL42	DE	BXC8C95	F	ZZ
SEDOL	I	2015/05/08	2015/05/08	1630704	4502985	US03027XAF78	DE	BXC8CB7	F	US
SEDOL	I	2015/05/08	2015/05/08	1630705	4504749	XS1227611347	ZZ	BWWC4T4	F	ZZ
SEDOL	I	2015/05/08	2015/05/08	1630706	4503859	XS1225009932	SG	BWFZXS2	F	ZZ
SEDOL	I	2015/05/08	2015/05/08	1630707	3551503	US35671DAW56	DE	BXC8CY0	F	US
SEDOL	I	2015/05/08	2015/05/08	1630708	1361390	DE000DZ1HDR6	ZZ	BXC87R8	F	ZZ
SEDOL	I	2015/05/08	2015/05/08	1630709	3921852	US726505AP50	DE	BXC8CW8	F	US
SEDOL	I	2015/05/08	2015/05/08	1630710	4483817	XS1143849419	ZZ	BXC8L54	F	LU
SEDOL	I	2015/05/08	2015/05/08	1630711	2555641	US726505AK63	DE	BXC8CT5	F	US
SEDOL	I	2015/05/08	2015/05/08	1630712	4500929	XS1228153661	DE	BXC8CG2	F	ZZ
SEDOL	I	2015/05/08	2015/05/08	1630713	4489448	CH0278667107	DE	BXC8CS4	F	ZZ
SEDOL	I	2015/05/08	2015/05/08	1630714	4496382	US00206RCM25	DE	BXC8CF1	F	US
SEDOL	I	2015/05/08	2015/05/08	1630715	4501219	XS1227607402	DE	BXC8BX2	F	ZZ
SEDOL	I	2015/05/08	2015/05/08	1630716	4006350	US35671DBD66	DE	BXC8CR3	F	ZZ
SEDOL	I	2015/05/08	2015/05/08	1630717	4500714	DE0001104602	DE	BXC87S9	F	ZZ
SEDOL	I	2015/05/08	2015/05/08	1630718	4501754	DE000BLB3AM0	DE	BXC8CK6	F	ZZ
SEDOL	I	2015/05/08	2015/05/08	1630719	4496384	US00206RCN08	DE	BXC8CC8	F	US
SEDOL	I	2015/05/08	2015/05/08	1630720	4489448	CH0278667107	CH	BXC8CJ5	F	ZZ
SEDOL	I	2015/05/08	2015/05/08	1630721	4503048	US74251VAK89	DE	BXC8C84	F	US
SEDOL	I	2015/05/08	2015/05/08	1630722	2216207	USP04559AB98	DE	BXC8CX9	F	US
SEDOL	I	2015/05/08	2015/05/08	1630723	4503094	US03027XAG51	DE	BXC8C73	F	US
SEDOL	I	2015/05/08	2015/05/08	1630724	4027982	JP304716AD46	ZZ	BXC8CN9	F	ZZ
SEDOL	I	2015/05/08	2015/05/08	1630725	4277762	JP349100AE51	ZZ	BXC8GT3	F	ZZ
SEDOL	I	2015/05/08	2015/05/08	1630726	3373261	JP351265DBB8	ZZ	BXC8K91	F	ZZ
SEDOL	I	2015/05/08	2015/05/08	1630727	4308498	JP525021AE78	ZZ	BXC8DM5	F	ZZ
SEDOL	I	2015/05/08	2015/05/08	1630728	4256391	JP336080BE44	ZZ	BXC8HD4	F	ZZ
SEDOL	I	2015/05/08	2015/05/08	1630729	4215394	JP342980AE36	ZZ	BXC8CV7	F	ZZ
SEDOL	I	2015/05/08	2015/05/08	1630730	4277732	JP314360BE59	ZZ	BXC8HM3	F	ZZ
SEDOL	I	2015/05/08	2015/05/08	1630731	4499699	XS1199695815	GB	BXC8BK9	F	ZZ
SEDOL	I	2015/05/08	2015/05/08	1630732	4164593	JP312500ADC6	ZZ	BXC8D14	F	ZZ
SEDOL	I	2015/05/08	2015/05/08	1630733	4257287	JP304716AE45	ZZ	BXC8CQ2	F	ZZ
SEDOL	I	2015/05/08	2015/05/08	1630734	4252137	JP342495BE41	ZZ	BXC8DP8	F	ZZ
SEDOL	I	2015/05/08	2015/05/08	1630735	4504790	XS1231126365	ZZ	BXC8KV3	F	ZZ
SEDOL	I	2015/05/08	2015/05/08	1630736	4277725	JP314360AE50	ZZ	BXC8HP6	F	ZZ
SEDOL	I	2015/05/08	2015/05/08	1630737	4498801	XS1225157533	GB	BXC8BM1	F	ZZ
SEDOL	I	2015/05/08	2015/05/08	1630738	4306803	JP355150AE73	ZZ	BXC8GY8	F	ZZ
SEDOL	I	2015/05/08	2015/05/08	1630739	4215374	JP304642BE35	ZZ	BXC8K57	F	ZZ
SEDOL	I	2015/05/08	2015/05/08	1630740	4256461	JP336080AE45	ZZ	BXC8HG7	F	ZZ
SEDOL	I	2015/05/08	2015/05/08	1630741	4497945	XS1225634648	GB	BXC8BZ4	F	ZZ
SEDOL	I	2015/05/08	2015/05/08	1630742	4215421	JP349720AE36	ZZ	BXC8GR1	F	ZZ
SEDOL	I	2015/05/08	2015/05/08	1630743	4215417	JP304642AE36	ZZ	BXC8K68	F	ZZ
SEDOL	I	2015/05/08	2015/05/08	1630744	4479059	XS1193717086	IE	BXC8L09	F	ZZ
SEDOL	I	2015/05/08	2015/05/08	1630745	4482023	XS1203928160	IE	BXC8B65	F	ZZ
SEDOL	I	2015/05/08	2015/05/08	1630746	4252133	JP342495AE42	ZZ	BXC8DS1	F	ZZ
SEDOL	I	2015/05/08	2015/05/08	1630747	3960722	JP381380ACC1	ZZ	BXC8H78	F	ZZ
SEDOL	I	2015/05/08	2015/05/08	1630748	4301196	JP304650AE68	ZZ	BXC8HJ0	F	ZZ
SEDOL	I	2015/05/08	2015/05/08	1630749	4501219	XS1227607402	GB	BXC8BP4	F	ZZ
SEDOL	I	2015/05/08	2015/05/08	1630750	4496855	XS1225031431	GB	BXC8C06	F	ZZ
SEDOL	I	2015/05/08	2015/05/08	1630751	4484855	US858119BD11	ZZ	BXC8745	F	ZZ
SEDOL	I	2015/05/08	2015/05/08	1630752	4256373	JP304749AE46	ZZ	BXC8CH3	F	ZZ
SEDOL	I	2015/05/08	2015/05/08	1630753	4165699	JP316600ADC0	ZZ	BXC8H01	F	ZZ
SEDOL	I	2015/05/08	2015/05/08	1630754	4147090	JP304642ADB8	ZZ	BXC8K79	F	ZZ
SEDOL	I	2015/05/08	2015/05/08	1630755	4497253	XS1222331974	IE	BXC8B76	F	ZZ
SEDOL	I	2015/05/08	2015/05/08	1630756	4336750	JP351180AE84	NG	BXC8DT2	F	ZZ
SEDOL	I	2015/05/08	2015/05/08	1630757	4068851	US31358C4Y99	ZZ	BXC8HB2	F	ZZ
SEDOL	I	2015/05/08	2015/05/08	1630758	3589166	JP314300AC22	ZZ	BXC8HK1	F	ZZ
SEDOL	I	2015/05/08	2015/05/08	1630759	4487198	XS1218334339	IE	BXC87J0	F	ZZ
SEDOL	I	2015/05/08	2015/05/08	1630760	3265251	JP304716AB97	ZZ	BXC8CM8	F	ZZ
SEDOL	I	2015/05/08	2015/05/08	1630761	3737187	JP316116AC39	ZZ	BXC8H12	F	ZZ
SEDOL	I	2015/05/08	2015/05/08	1630762	4312168	JP304754AE71	ZZ	BXC8DV4	F	ZZ
SEDOL	I	2015/05/08	2015/05/08	1630763	3960764	JP525021BCC6	ZZ	BXC8DL4	F	ZZ
SEDOL	I	2015/05/08	2015/05/08	1630764	4449099	JP2400002F24	ZZ	BXC8HC3	F	ZZ
SEDOL	I	2015/05/08	2015/05/08	1630765	4504884	USU16309AB95	ZZ	BXC8778	F	ZZ
SEDOL	I	2015/05/08	2015/05/08	1630766	4505539	USG19615AB22	IE	BWG07D9	F	US
SEDOL	I	2015/05/08	2015/05/08	1630767	4505543	US55818LAA70	ZZ	BXC32K1	F	KY
SEDOL	I	2015/05/08	2015/05/08	1630770	4505548	IT0005108334	IT	BXC8HZ6	F	ZZ
SEDOL	I	2015/05/08	2015/05/08	1630771	4505549	US06050TLZ39	ZZ	BWGMDX7	F	US
SEDOL	I	2015/05/08	2015/05/08	1630772	4505551	IT0005108227	IT	BXC8HY5	F	ZZ
SEDOL	I	2015/05/08	2015/05/08	1630773	4505554	US55818YAJ01	ZZ	BX90BX1	F	KY
SEDOL	I	2015/05/08	2015/05/08	1630774	4505556	US880592UK43	ZZ	BWDPGJ6	F	ZZ
SEDOL	I	2015/05/08	2015/05/08	1630775	4505617	IT0005107542	IT	BXC8HX4	F	ZZ
SEDOL	I	2015/05/08	2015/05/08	1630776	4505619	CH0278624181	ZZ	BWDL1B1	F	ZZ
SEDOL	I	2015/05/08	2015/05/08	1630777	4505624	XS1186294424	IE	BWWCJ11	F	ZZ
SEDOL	I	2015/05/08	2015/05/08	1630778	4505621	XS1231274124	ZZ	BXC8LC1	F	ZZ
SEDOL	I	2015/05/08	2015/05/08	1630779	4505626	NZRBFDF155F9	ZZ	BXC4873	F	ZZ
SEDOL	I	2015/05/08	2015/05/08	1630781	4505631	XS1225179420	ZZ	BWT3NM6	F	ZZ
SEDOL	I	2015/05/08	2015/05/08	1630783	4505633	AU3CB0229227	DE	BWT3P86	F	ZZ
SEDOL	I	2015/05/08	2015/05/08	1630784	4505636	USL20198AA26	IE	BXC8C17	F	US
SEDOL	I	2015/05/08	2015/05/08	1630785	4505638	XS1150576939	ZZ	BXC8K80	F	ZZ
SEDOL	I	2015/05/08	2015/05/08	1630786	4505640	KYG0R3821056	ZZ	BXC87X4	F	KY
SEDOL	I	2015/05/08	2015/05/08	1630787	4505641	XS1230006840	ZZ	BXC8JN8	F	ZZ
SEDOL	I	2015/05/08	2015/05/08	1630788	4505642	US121342NL92	ZZ	BWT3X59	F	US
SEDOL	I	2015/05/08	2015/05/08	1630789	4505645	US31315KWD89	ZZ	BWT46H5	F	ZZ
SEDOL	I	2015/05/08	2015/05/08	1630790	4505657	US38147QYM22	ZZ	BWT46N1	F	ZZ
SEDOL	I	2015/05/08	2015/05/08	1630791	4505659	US313588VX03	ZZ	BWT46G4	F	ZZ
SEDOL	I	2015/05/08	2015/05/08	1630792	4505662	US880592WD81	ZZ	BWT4749	F	ZZ
SEDOL	I	2015/05/08	2015/05/08	1630793	4505664	US38147QY910	ZZ	BWT47F0	F	ZZ
SEDOL	I	2015/05/08	2015/05/08	1630794	4505668	US48125YBR45	ZZ	BWT46W0	F	ZZ
SEDOL	I	2015/05/08	2015/05/08	1630795	4505670	US459516WD87	ZZ	BWT46S6	F	ZZ
SEDOL	I	2015/05/08	2015/05/08	1630796	4505673	US313396WD16	ZZ	BWT46L9	F	ZZ
SEDOL	I	2015/05/08	2015/05/08	1630797	4505676	US45818KWD08	ZZ	BWT46R5	F	ZZ
SEDOL	I	2015/05/08	2015/05/08	1630798	4505678	US313384WD77	ZZ	BWT46K8	F	ZZ
SEDOL	I	2015/05/08	2015/05/08	1630799	4505681	US90782JAA16	ZZ	BWT47X8	F	ZZ
SEDOL	I	2015/05/08	2015/05/08	1630802	4505685	US690353F285	ZZ	BWT4835	F	US
SEDOL	I	2015/05/08	2015/05/08	1630803	4505684	GB00BDNQCF45	ZZ	BDNQCF4	F	GB
SEDOL	I	2015/05/08	2015/05/08	1630805	4505689	GB00BDNQCB07	ZZ	BDNQCB0	F	GB
SEDOL	I	2015/05/08	2015/05/08	1630806	4505693	GB00BDNQC765	ZZ	BDNQC76	F	GB
SEDOL	I	2015/05/08	2015/05/08	1630807	4501617	MXBIGO000IP5	ZZ	BWFF1Y4	F	ZZ
SEDOL	I	2015/05/08	2015/05/08	1630808	4505694	USP3579EBG19	ZZ	BWG09T9	F	ZZ
SEDOL	I	2015/05/08	2015/05/08	1630809	4505697	US097464YB12	ZZ	BX90BM0	F	US
SEDOL	I	2015/05/08	2015/05/08	1630810	4505699	GB00BDNQ8G79	ZZ	BDNQ8G7	F	GB
SEDOL	I	2015/05/08	2015/05/08	1630811	4505704	GB00BDNQ8H86	ZZ	BDNQ8H8	F	GB
SEDOL	I	2015/05/08	2015/05/08	1630812	4505711	US73358WWY64	ZZ	BX1D5H0	F	US
SEDOL	I	2015/05/08	2015/05/08	1630814	4505718	GB00BDNQ8V21	ZZ	BDNQ8V2	F	GB
SEDOL	I	2015/05/08	2015/05/08	1630815	4505732	GB00BDNQ8W38	ZZ	BDNQ8W3	F	GB
SEDOL	I	2015/05/08	2015/05/08	1630816	4505745	XS1230926609	US	BXC8KC4	F	ZZ
SEDOL	I	2015/05/08	2015/05/08	1630817	4504607	MYBRB1501162	ZZ	BX9CZD5	F	ZZ
SEDOL	I	2015/05/08	2015/05/08	1630821	4505757	MYBRA1501149	ZZ	BX9CZC4	F	ZZ
SEDOL	I	2015/05/08	2015/05/08	1630823	4505777	XS1210973894	ZZ	BX1BD03	F	ZZ
SEDOL	I	2015/05/08	2015/05/08	1630824	4505780	CH0276581110	CH	BX3JD27	F	ZZ
SEDOL	I	2015/05/08	2015/05/08	1630825	4505783		CN	BX3JFC1	F	ZZ
SEDOL	I	2015/05/08	2015/05/08	1630826	4505798	US38147QY837	ZZ	BWT47D8	F	ZZ
SEDOL	I	2015/05/08	2015/05/08	1630827	4505805	US313396WE98	ZZ	BX90FM8	F	ZZ
SEDOL	I	2015/05/08	2015/05/08	1630828	4505807	US880592WE64	ZZ	BX90GD6	F	ZZ
SEDOL	I	2015/05/08	2015/05/08	1630829	4505811	US313384WE50	ZZ	BX90FL7	F	ZZ
SEDOL	I	2015/05/08	2015/05/08	1630830	4505814	US313312WE65	ZZ	BX90FK6	F	ZZ
SEDOL	I	2015/05/08	2015/05/08	1630831	4505815	DE000DG4T283	DE	BXC8HS9	F	ZZ
SEDOL	I	2015/05/08	2015/05/08	1630832	4505820	GB00BDNQF669	ZZ	BDNQF66	F	GB
SEDOL	I	2015/05/08	2015/05/08	1630833	4505821		CN	BX7R4W4	F	ZZ
SEDOL	I	2015/05/08	2015/05/08	1630835	4505830		ZZ	BX7R361	F	ZZ
SEDOL	I	2015/05/08	2015/05/08	1630837	4505835	CND1000086X2	ZZ	BX7R1M3	F	ZZ
SEDOL	I	2015/05/08	2015/05/08	1630838	4505836	GB00BDNQD953	ZZ	BDNQD95	F	GB
SEDOL	I	2015/05/08	2015/05/08	1630839	4505838	CND100008754	ZZ	BX7R510	F	ZZ
SEDOL	I	2015/05/08	2015/05/08	1630840	4505839	US459516WE60	ZZ	BX90FW8	F	ZZ
SEDOL	I	2015/05/08	2015/05/08	1630841	4505840	US31315KWE62	ZZ	BX90FJ5	F	ZZ
SEDOL	I	2015/05/08	2015/05/08	1630842	4505829	DE000A11QEY0	ZZ	BXC8HR8	F	DE
SEDOL	I	2015/05/08	2015/05/08	1630843	4505842	CND100008796	ZZ	BX7R3M7	F	ZZ
SEDOL	I	2015/05/08	2015/05/08	1630844	4505844	US459052WE29	ZZ	BX90FV7	F	ZZ
SEDOL	I	2015/05/08	2015/05/08	1630845	4505846	DE000A12UFS9	ZZ	BXC8HQ7	F	DE
SEDOL	I	2015/05/08	2015/05/08	1630846	4505845	GB00BDNQD730	ZZ	BDNQD73	F	GB
SEDOL	I	2015/05/08	2015/05/08	1630847	4505847	US45818KWE80	ZZ	BX90FT5	F	ZZ
SEDOL	I	2015/05/08	2015/05/08	1630848	4505850	CND100008788	ZZ	BX7R4M4	F	ZZ
SEDOL	I	2015/05/08	2015/05/08	1630849	4505854	US48019AE436	ZZ	BWTZ6Y5	F	ZZ
SEDOL	I	2015/05/08	2015/05/08	1630850	4505851	XS1227070247	LU	BX7RQF1	F	ZZ
SEDOL	I	2015/05/08	2015/05/08	1630851	4505856	GB00BDNNWF51	ZZ	BDNNWF5	F	GB
SEDOL	I	2015/05/08	2015/05/08	1630852	4505859	GB00BDNNWD38	ZZ	BDNNWD3	F	GB
SEDOL	I	2015/05/08	2015/05/08	1630853	4505861	CND1000086J1	ZZ	BX7R1D4	F	ZZ
SEDOL	I	2015/05/08	2015/05/08	1630854	4505863	GB00BDNNXY16	ZZ	BDNNXY1	F	GB
SEDOL	I	2015/05/08	2015/05/08	1630855	4505864	DE0001108777	DE	BXC8H90	F	DE
SEDOL	I	2015/05/08	2015/05/08	1630856	4505866	GB00BDNP5079	ZZ	BDNP507	F	GB
SEDOL	I	2015/05/08	2015/05/08	1630857	4505869	US912796GM51	ZZ	BX9C290	F	US
SEDOL	I	2015/05/08	2015/05/08	1630858	4505871		ZZ	BWT3FB9	F	ZZ
SEDOL	I	2015/05/08	2015/05/08	1630859	4505874		ZZ	BWT3F64	F	ZZ
SEDOL	U	2004/03/15	2015/05/08	103052	139172	GB0009031211	GB	0903121	T	GB
SEDOL	U	2006/12/04	2015/05/08	261091	443829	US172967BW09	LU	2655118	T	US
SEDOL	U	2008/05/24	2015/05/08	385056	822895	XS0359761672	ZZ	B2RFPM8	T	ZZ
SEDOL	U	2008/07/21	2015/05/08	397558	823499	XS0360044878	ZZ	B3BG751	T	ZZ
SEDOL	U	2010/05/13	2015/05/08	606128	1809733	XS0493713738	NO	B61FV24	T	ZZ
SEDOL	U	2010/05/13	2015/05/08	606129	1809741	XS0493715865	ZZ	B5NT6B1	T	JE
SEDOL	U	2011/04/21	2015/05/08	1008092	1841839	XS0494085524	ZZ	B3XNDR4	T	ZZ
SEDOL	U	2010/05/14	2015/05/08	613727	1883257	XS0498317576	ZZ	B3MXCQ7	T	IN
SEDOL	U	2010/05/04	2015/05/08	572867	1887882	XS0505649912	LU	B3QBF91	T	ZZ
SEDOL	U	2010/05/08	2015/05/08	576048	1889086	XS0506059061	GB	B3S0K91	T	ZZ
SEDOL	U	2010/04/30	2015/05/08	570936	1891989	FR0010892521	ZZ	B68M5Z9	T	ZZ
SEDOL	U	2011/06/17	2015/05/08	1087964	1895389	XS0507263399	XS	B585HJ9	T	ZZ
SEDOL	U	2010/05/11	2015/05/08	588482	1896112	XS0507319522	ZZ	B45TBH3	T	ZZ
SEDOL	U	2010/05/06	2015/05/08	574068	1897699	USY05509AA57	SG	B3XN5G7	T	ZZ
SEDOL	U	2010/05/06	2015/05/08	574070	1897702	US057590AA95	SG	B3YKB47	T	ZZ
SEDOL	U	2011/01/12	2015/05/08	846941	1898640	CA33564PAA18	ZZ	B3MVP51	T	CA
SEDOL	U	2010/05/08	2015/05/08	576020	1914536	XS0502703191	ZZ	B6BWCY4	T	ZZ
SEDOL	U	2011/11/09	2015/05/08	1286491	1918719	XS0502707853	IT	B6BWHD8	T	ZZ
SEDOL	U	2012/02/03	2015/05/08	1314888	3503275	XS0742245631	DE	B6ZHY49	T	ZZ
SEDOL	U	2012/03/08	2015/05/08	1322939	831045	XS0361338139	ZZ	B79HHF4	T	ZZ
SEDOL	U	2012/03/19	2015/05/08	1324952	3601656	XS0755797056	GB	B7DRFS9	T	ZZ
SEDOL	U	2012/04/13	2015/05/08	1331506	3733086	CH0183698411	ZZ	B7PD0M4	T	ZZ
SEDOL	U	2012/05/07	2015/05/08	1339709	3780817	US62866QAC96	ZZ	B87DMP6	T	ZZ
SEDOL	U	2012/05/23	2015/05/08	1343086	443829	US172967BW09	US	B8G0D88	T	US
SEDOL	U	2012/07/05	2015/05/08	1352114	3866171	US62866QAB14	ZZ	B8K6Q49	T	ZZ
SEDOL	U	2012/10/15	2015/05/08	1376628	1851280	XS0499944600	LU	B8FWQ75	T	ZZ
SEDOL	U	2012/10/17	2015/05/08	1377495	1891989	FR0010892521	DE	B87G459	T	ZZ
SEDOL	U	2012/10/24	2015/05/08	1380904	3733086	CH0183698411	DE	B8G3P03	T	ZZ
SEDOL	U	2012/10/30	2015/05/08	1382755	443829	US172967BW09	DE	B846D55	T	US
SEDOL	U	2012/10/31	2015/05/08	1383830	1897924	XS0507776424	ZZ	B83J4Q3	T	ZZ
SEDOL	U	2012/10/31	2015/05/08	1383832	1897929	XS0507777588	ZZ	B7SR261	T	GB
SEDOL	U	2013/03/19	2015/05/08	1420959	1884185	XS0504423657	ZZ	B7F32Q2	T	ZZ
SEDOL	U	2013/04/18	2015/05/08	1428690	4021013	XS0921247549	ZZ	B9M3689	T	ZZ
SEDOL	U	2013/04/23	2015/05/08	1429682	3783739		HK	B9JF019	T	ZZ
SEDOL	U	2013/05/06	2015/05/08	1432145	4029539	XS0926920272	ZZ	B84FZW3	T	ZZ
SEDOL	U	2013/10/25	2015/05/08	1473624	4132053	XS0987032173	ZZ	BFXW0D0	T	GB
SEDOL	U	2013/10/26	2015/05/08	1473662	4132845	US302107AA59	ZZ	BFZDFX6	T	LU
SEDOL	U	2013/10/29	2015/05/08	1474189	4133582	USL34565AA63	ZZ	BG3FC29	T	ZZ
SEDOL	U	2013/11/01	2015/05/08	1474908	4134989	US62944BAP94	LU	BG6N918	T	NL
SEDOL	U	2013/11/05	2015/05/08	1475625	4125723	XS0984032648	IE	BG7ZSR2	T	ZZ
SEDOL	U	2013/11/06	2015/05/08	1476087	4137063	US05565QCL05	ZZ	BGCC6H4	T	GB
SEDOL	U	2014/03/05	2015/05/08	1506907	1755584	INE081A07175	IN	B8FD4N0	T	ZZ
SEDOL	U	2014/03/05	2015/05/08	1507126	1925400	NO0010574502	NO	B7BZBM1	T	ZZ
SEDOL	U	2014/03/05	2015/05/08	1509446	3805901	INE909H07719	IN	BJ38XB5	T	ZZ
SEDOL	U	2014/03/05	2015/05/08	1509489	3838141	INE860H07219	IN	BJ38X48	T	ZZ
SEDOL	U	2014/03/05	2015/05/08	1511743	4089306	US62866QAA31	ZZ	B8K9BW1	T	ZZ
SEDOL	U	2014/03/11	2015/05/08	1514650	4195067	ARBRIO050521	AR	BKQVJH6	T	AR
SEDOL	U	2014/03/14	2015/05/08	1516098	4192696	ARTACU050395	AR	BKRV3H3	T	AR
SEDOL	U	2014/03/18	2015/05/08	1516784	4156425	KR310503G3B3	KR	BKWBC82	T	ZZ
SEDOL	U	2014/04/12	2015/05/08	1524150	4246029	XS1057890094	ZZ	BLNN0M4	T	GB
SEDOL	U	2014/04/14	2015/05/08	1524448	4246597	XS1059074788	ZZ	BLP5RF0	T	GB
SEDOL	U	2014/04/18	2015/05/08	1525773	3766547	TW0003284204	TW	BLT20R0	T	TW
SEDOL	U	2014/04/18	2015/05/08	1525788	3766563	TW0003303400	TW	BLT23J3	T	TW
SEDOL	U	2014/04/18	2015/05/08	1525807	3766558	TW0003303301	TW	BLT23H1	T	TW
SEDOL	U	2014/04/22	2015/05/08	1526746	4251391	XS1061657182	ZZ	BLT2GV6	T	GB
SEDOL	U	2014/05/07	2015/05/08	1529719	4255871	XS1063406927	IE	BMH4L49	T	ZZ
SEDOL	U	2014/05/08	2015/05/08	1530045	4253588	XS1062141582	IE	BMHTHB3	T	ZZ
SEDOL	U	2014/05/08	2015/05/08	1530196	4262340	XS1062935207	IE	BMHTHC4	T	ZZ
SEDOL	U	2014/05/08	2015/05/08	1530203	4262379	XS1062935116	IE	BMHT7T1	T	ZZ
SEDOL	U	2014/05/29	2015/05/08	1535210	4266384		ZZ	BN3ZYW2	T	NG
SEDOL	U	2014/06/09	2015/05/08	1537726	3815176	MX95FE040004	ZZ	BN800M4	T	ZZ
SEDOL	U	2014/07/18	2015/05/08	1549421	4310939	US949748QX81	ZZ	BP4WPY5	T	US
SEDOL	U	2014/07/19	2015/05/08	1549635	4311487	US94988E2K34	ZZ	BP4WRW7	T	US
SEDOL	U	2014/07/22	2015/05/08	1550318	4260940	CA13595ZUZ75	ZZ	BP9DW53	T	CA
SEDOL	U	2014/07/22	2015/05/08	1550813	4115598	US94986RDJ77	ZZ	BPBFTQ7	T	US
SEDOL	U	2014/07/22	2015/05/08	1550900	2073196	US949746QF10	ZZ	BPBFR29	T	US
SEDOL	U	2014/08/12	2015/05/08	1555748	4316055	DE000HLB1FB0	DE	BQ0Q9J1	T	ZZ
SEDOL	U	2014/10/10	2015/05/08	1571126	4362606	MYBBE1400512	ZZ	BRJKZS2	T	ZZ
SEDOL	U	2014/11/01	2015/05/08	1577359	4376865	US912796FF10	ZZ	BSD9D66	T	US
SEDOL	U	2014/11/07	2015/05/08	1579308	4380681	XS1135877170	ZZ	BSK4XY2	T	ZZ
SEDOL	U	2014/12/09	2015/05/08	1587919	4402441	XS1150568753	ZZ	BTDFTR4	T	ZZ
SEDOL	U	2014/12/13	2015/05/08	1589418	4405799	XS1066382091	ZZ	BTGMFG3	T	ZZ
SEDOL	U	2015/01/20	2015/05/08	1599239	4381638	MYBRD1402953	ZZ	BSPBXR1	T	ZZ
SEDOL	U	2015/01/22	2015/05/08	1599680	4430515	DE000XM0AKN8	DE	BV0LRT7	T	ZZ
SEDOL	U	2015/01/31	2015/05/08	1601490	1986223	CND100002LX2	ZZ	BVV29K4	T	ZZ
SEDOL	U	2015/02/02	2015/05/08	1601708	4435813	JP1745091F25	ZZ	BVRYRC2	T	JP
SEDOL	U	2015/02/05	2015/05/08	1602934	4440693	GB00BDNNRT45	ZZ	BDNNRT4	T	GB
SEDOL	U	2015/02/06	2015/05/08	1603300	4441598	GB00BDNNSZ79	ZZ	BDNNSZ7	T	GB
SEDOL	U	2015/02/16	2015/05/08	1605069	4443415	KR380803A528	ZZ	BVFMP35	T	ZZ
SEDOL	U	2015/02/17	2015/05/08	1605422	4438659	TH0655D7P581	ZZ	BVYHVR7	T	ZZ
SEDOL	U	2015/03/11	2015/05/08	1610170	4459806	KR103101A531	KR	BWBY242	T	ZZ
SEDOL	U	2015/04/02	2015/05/08	1615064	4478687	GB00BDNPQD75	ZZ	BDNPQD7	T	GB
SEDOL	U	2015/04/04	2015/05/08	1615866	4480675	XS1216086345	ZZ	BWTVBW6	T	ZZ
SEDOL	U	2015/04/06	2015/05/08	1616288	4482020	XS1216088390	XS	BWTVBY8	T	ZZ
SEDOL	U	2015/04/07	2015/05/08	1616373	4482313	XS1216089281	ZZ	BWTVBZ9	T	ZZ
SEDOL	U	2015/04/08	2015/05/08	1616624	4483259	XS1216458072	IE	BVGH120	T	ZZ
SEDOL	U	2015/04/10	2015/05/08	1617567	4485528		IE	BVYTX66	T	ZZ
SEDOL	U	2015/04/16	2015/05/08	1624762	4489837	CH0273393600	DE	BWFDP91	T	CH
SEDOL	U	2015/04/20	2015/05/08	1625691	4492462	NZRBFDF127F8	ZZ	BWV0FW9	T	ZZ
SEDOL	U	2015/04/22	2015/05/08	1626181	4494410	GB00BDNQ2H66	ZZ	BDNQ2H6	T	GB
SEDOL	U	2015/04/27	2015/05/08	1627399	4492538	XS1207722957	IE	BWNGZL4	T	ZZ
SEDOL	U	2015/05/06	2015/05/08	1630200	4504008	XS1227597090	XS	BWWC4R2	T	ZZ
SEDOL	I	2015/05/08	2015/05/08	1631029	4505887	XS1225488219	ZZ	BX9BQ28	F	ZZ
SEDOL	I	2015/05/08	2015/05/08	1631030	4505894	CH0279919473	ZZ	BWG07F1	F	CH
SEDOL	I	2015/05/08	2015/05/08	1631031	4505896	CH0266741302	ZZ	BWG07H3	F	CH
SEDOL	I	2015/05/08	2015/05/08	1631033	4505905	KR310503J546	ZZ	BX90FR3	F	ZZ
SEDOL	I	2015/05/08	2015/05/08	1631034	4505910	XS1218196944	ZZ	BX8ZWX4	F	ZZ
SEDOL	I	2015/05/08	2015/05/08	1631035	4505913	XS1218196787	ZZ	BX8ZWZ6	F	ZZ
SEDOL	I	2015/05/08	2015/05/08	1631036	4505916	KR356102G548	ZZ	BX90G25	F	ZZ
SEDOL	I	2015/05/08	2015/05/08	1631037	4505919	KR310502J548	ZZ	BX90FQ2	F	ZZ
SEDOL	I	2015/05/08	2015/05/08	1631038	4505923	KR310503A545	ZZ	BX90FS4	F	ZZ
SEDOL	I	2015/05/08	2015/05/08	1631040	4505925		ZZ	BX8ZXC0	F	ZZ
SEDOL	I	2015/05/08	2015/05/08	1631041	4505930	XS1215882264	ZZ	BX8ZX19	F	ZZ
SEDOL	I	2015/05/08	2015/05/08	1631042	4505938	CH0241729919	ZZ	BX9BWC0	F	ZZ
SEDOL	I	2015/05/08	2015/05/08	1631044	4505943		ZZ	BX9BNW7	F	ZZ
SEDOL	I	2015/05/08	2015/05/08	1631045	4505946	CH0273395381	DE	BXBZCX1	F	CH
SEDOL	I	2015/05/08	2015/05/08	1631047	4505948	GB00BDNQDD95	ZZ	BDNQDD9	F	GB
SEDOL	I	2015/05/08	2015/05/08	1631048	4505949		CN	BX9BPN2	F	ZZ
SEDOL	I	2015/05/08	2015/05/08	1631049	4505950	GB00BDNQ8569	ZZ	BDNQ856	F	GB
SEDOL	I	2015/05/08	2015/05/08	1631050	4505952	GB00BDNQDM86	ZZ	BDNQDM8	F	GB
SEDOL	I	2015/05/08	2015/05/08	1631053	4505957	GB00BDNQDP18	ZZ	BDNQDP1	F	GB
SEDOL	I	2015/05/08	2015/05/08	1631054	4505955		ZZ	BX9BP54	F	ZZ
SEDOL	I	2015/05/08	2015/05/08	1631055	4505958	GB00BDNQ7V55	ZZ	BDNQ7V5	F	GB
SEDOL	I	2015/05/08	2015/05/08	1631056	4505959	GB00BDNQDS49	ZZ	BDNQDS4	F	GB
SEDOL	I	2015/05/08	2015/05/08	1631057	4505961	GB00BDNQDZ16	ZZ	BDNQDZ1	F	GB
SEDOL	I	2015/05/08	2015/05/08	1631058	4505963	GB00BDNQ8D49	ZZ	BDNQ8D4	F	GB
SEDOL	I	2015/05/08	2015/05/08	1631060	4505966	GB00BDNQDT55	ZZ	BDNQDT5	F	GB
SEDOL	I	2015/05/08	2015/05/08	1631061	4505967	GB00BDNQ7T34	ZZ	BDNQ7T3	F	GB
SEDOL	I	2015/05/08	2015/05/08	1631062	4505968	GB00BDNQDN93	ZZ	BDNQDN9	F	GB
SEDOL	I	2015/05/08	2015/05/08	1631065	4500476	ES0000101693	DE	BXC8C40	F	ZZ
SEDOL	I	2015/05/08	2015/05/08	1631066	4500476	ES0000101693	ES	BXC8C39	F	ZZ
SEDOL	I	2015/05/08	2015/05/08	1631067	4506000	XS1223773265	GB	BXC8BL0	F	ZZ
SEDOL	I	2015/05/08	2015/05/08	1631068	4506004	XS1231262111	IE	BXC87F6	F	ZZ
SEDOL	I	2015/05/08	2015/05/08	1631069	4506014	XS1231125987	IE	BXC87G7	F	ZZ
SEDOL	I	2015/05/08	2015/05/08	1631070	4506018		IE	BXC87H8	F	ZZ
SEDOL	I	2015/05/08	2015/05/08	1631071	4505904	XS1231116481	ZZ	BXC7YV8	F	ZZ
SEDOL	I	2015/05/08	2015/05/08	1631072	4506077	XS1228872435	ZZ	BXC7Y41	F	ZZ
SEDOL	I	2015/05/08	2015/05/08	1631073	4506089	XS1230332139	IE	BXC4GW4	F	ZZ
SEDOL	I	2015/05/08	2015/05/08	1631074	4506093	GB00BDNQDV77	ZZ	BDNQDV7	F	GB
SEDOL	I	2015/05/08	2015/05/08	1631075	4506091	US39808PAA49	ZZ	BWXC1H0	F	ZZ
SEDOL	I	2015/05/08	2015/05/08	1631076	4506098	GB00BDNQD409	ZZ	BDNQD40	F	GB
SEDOL	I	2015/05/08	2015/05/08	1631077	4506104	GB00BDNQDW84	ZZ	BDNQDW8	F	GB
SEDOL	I	2015/05/08	2015/05/08	1631079	4506112	GB00BDNQDY09	ZZ	BDNQDY0	F	GB
SEDOL	I	2015/05/08	2015/05/08	1631080	4506124	GB00BDNQD516	ZZ	BDNQD51	F	GB
SEDOL	I	2015/05/08	2015/05/08	1631081	4506146	GB00BDNQDQ25	ZZ	BDNQDQ2	F	GB
SEDOL	I	2015/05/08	2015/05/08	1631092	4502910	XS1229301731	GB	BXB0BW8	F	ZZ
SEDOL	I	2015/05/08	2015/05/08	1631093	4505855	XS1227680409	HK	BWX54V4	F	ZZ
SEDOL	I	2015/05/08	2015/05/08	1631094	4505934	XS1227820187	HK	BXC7WK3	F	ZZ
SEDOL	I	2015/05/08	2015/05/08	1631095	4505761	US210382AA50	ZZ	BXC5WV8	F	US
SEDOL	I	2015/05/08	2015/05/08	1631096	4505708	US893647AY31	ZZ	BXC5WC9	F	US
SEDOL	I	2015/05/08	2015/05/08	1631097	4505857	US71642QAA58	ZZ	BXC5WW9	F	US
SEDOL	I	2015/05/08	2015/05/08	1631098	4505722	US50126AAB70	ZZ	BXC5W41	F	BM
SEDOL	I	2015/05/08	2015/05/08	1631099	4505843	USG7028AAA19	ZZ	BXC7WY7	F	ZZ
SEDOL	I	2015/05/08	2015/05/08	1631100	4504681	US413086AH29	ZZ	BXC5W07	F	US
SEDOL	I	2015/05/08	2015/05/08	1631101	4505834	US69318UAA34	ZZ	BXC8H67	F	ZZ
SEDOL	I	2015/05/08	2015/05/08	1631102	4501824	US45950VGD29	DE	BXDYYP2	F	LU
SEDOL	I	2015/05/08	2015/05/08	1631103	3588796	XS0752394089	DE	BXDYYL8	F	ZZ
SEDOL	I	2015/05/08	2015/05/08	1631104	299035	ARARGE03F144	DE	BXDXXB8	F	AR
SEDOL	I	2015/05/08	2015/05/08	1631105	4499933	DE000HLB1ZG7	DE	BXDXX07	F	ZZ
SEDOL	I	2015/05/08	2015/05/08	1631106	4505677	DE000HSH4ZP9	DE	BXDZ2V7	F	ZZ
SEDOL	I	2015/05/08	2015/05/08	1631107	4502990	US29379VBJ17	LU	BXDZ2P1	F	US
SEDOL	I	2015/05/08	2015/05/08	1631108	4500510	XS1227684062	DE	BXDZ381	F	ZZ
SEDOL	I	2015/05/08	2015/05/08	1631109	4500842	XS1226748512	US	BXC8LW1	F	ZZ
SEDOL	I	2015/05/08	2015/05/08	1631110	4499939	DE000NLB2JF3	DE	BXDXX96	F	ZZ
SEDOL	I	2015/05/08	2015/05/08	1631111	4498795	DE000BLB2942	DE	BXDXWZ5	F	ZZ
SEDOL	I	2015/05/08	2015/05/08	1631112	4498869	USU2541JAA52	DE	BXDZ2S4	F	US
SEDOL	I	2015/05/08	2015/05/08	1631113	4501410	XS1117297355	DE	BXDZ2N9	F	ZZ
SEDOL	I	2015/05/08	2015/05/08	1631114	4499938	DE000NLB2H11	DE	BXDXX85	F	ZZ
SEDOL	I	2015/05/08	2015/05/08	1631115	4501193	XS1227609879	DE	BXDYYV8	F	ZZ
SEDOL	I	2015/05/08	2015/05/08	1631116	4502992	US29379VBG77	LU	BXDZ2Q2	F	US
SEDOL	I	2015/05/08	2015/05/08	1631117	4502993	US29379VBH50	DE	BXDZ2M8	F	US
SEDOL	I	2015/05/08	2015/05/08	1631118	4505445	XS1231289312	DE	BXDZ3B4	F	ZZ
SEDOL	I	2015/05/08	2015/05/08	1631119	4499935	DE000HLB4N88	DE	BXDXX74	F	ZZ
SEDOL	I	2015/05/08	2015/05/08	1631120	4501415	DE000HLB4P78	DE	BXDXX52	F	ZZ
SEDOL	I	2015/05/08	2015/05/08	1631121	4500502	CH0280565562	DE	BXDYYT6	F	ZZ
SEDOL	I	2015/05/08	2015/05/08	1631122	1797083	US760942AX01	DE	BXDYYX0	F	US
SEDOL	I	2015/05/08	2015/05/08	1631123	4502985	US03027XAF78	LU	BXDZ2L7	F	US
SEDOL	I	2015/05/08	2015/05/08	1631124	4499929	DE000HLB1ZF9	DE	BXDXX63	F	ZZ
SEDOL	I	2015/05/08	2015/05/08	1631125	4499774	DE000HLB4P60	DE	BXDXX41	F	ZZ
SEDOL	I	2015/05/08	2015/05/08	1631126	2616465	USP71695AB92	DE	BXDYYS5	F	AR
SEDOL	I	2015/05/08	2015/05/08	1631127	625999	USP9308RAX19	DE	BXDYYW9	F	ZZ
SEDOL	I	2015/05/08	2015/05/08	1631128	4493399	XS1220246521	IE	BXDXX30	F	LU
SEDOL	I	2015/05/08	2015/05/08	1631129	4500316	XS1227748214	DE	BXDYYR4	F	ZZ
SEDOL	I	2015/05/08	2015/05/08	1631130	4495607	US459058EJ87	LU	BXDYYN0	F	US
SEDOL	I	2015/05/08	2015/05/08	1631131	4501758	DE000BLB3AW9	DE	BXDXX29	F	ZZ
SEDOL	I	2015/05/08	2015/05/08	1631132	638238	USP5880CAA82	DE	BXDYYQ3	F	ZZ
SEDOL	I	2015/05/08	2015/05/08	1631133	4501375	DE000A1YCQE0	DE	BXDYYM9	F	ZZ
SEDOL	I	2015/05/08	2015/05/08	1631134	4504726	USG5320CAA65	ZZ	BXC8LP4	F	US
SEDOL	I	2015/05/08	2015/05/08	1631135	4500465	FR0012716371	DE	BXDXXC9	F	ZZ
SEDOL	I	2015/05/08	2015/05/08	1631136	4498852	XS1226306253	DE	BXDXX18	F	ZZ
SEDOL	I	2015/05/08	2015/05/08	1631137	4505860	US745310AG72	ZZ	BXCJ113	F	ZZ
SEDOL	I	2015/05/08	2015/05/08	1631138	4505867	US75281AAR05	ZZ	BXCJ1B3	F	US
SEDOL	I	2015/05/08	2015/05/08	1631139	4312132	JP304089AE77	ZZ	BXDZ3P8	F	ZZ
SEDOL	I	2015/05/08	2015/05/08	1631140	4483761	XS1138844870	IE	BXDZ3Y7	F	ZZ
SEDOL	I	2015/05/08	2015/05/08	1631141	4222986	JP390200AE39	ZZ	BXDZ4Q6	F	ZZ
SEDOL	I	2015/05/08	2015/05/08	1631142	4491375	BRMPRODBS005	BR	BXC8M06	F	BR
SEDOL	I	2015/05/08	2015/05/08	1631143	4313630	US205887BV39	ZZ	BXC8LT8	F	US
SEDOL	I	2015/05/08	2015/05/08	1631144	4312142	JP304089BE76	ZZ	BXDZ3Q9	F	ZZ
SEDOL	I	2015/05/08	2015/05/08	1631145	4310258	JP389360AE78	ZZ	BXDZ4R7	F	ZZ
SEDOL	I	2015/05/08	2015/05/08	1631146	4504741	US011395AC48	ZZ	BXCJ2N2	F	BM
SEDOL	I	2015/05/08	2015/05/08	1631147	4483792	XS1138845844	IE	BXDZ4B1	F	ZZ
SEDOL	I	2015/05/08	2015/05/08	1631148	4190443	JP391800AE15	ZZ	BXDZ4M2	F	ZZ
SEDOL	I	2015/05/08	2015/05/08	1631149	4505749	US103304BK67	ZZ	BXCJ135	F	US
SEDOL	I	2015/05/08	2015/05/08	1631150	4301171	JP303971AE62	ZZ	BXDZ3R0	F	ZZ
SEDOL	I	2015/05/08	2015/05/08	1631151	4277754	JP330420AE54	ZZ	BXDZ400	F	ZZ
SEDOL	I	2015/05/08	2015/05/08	1631152	4483780	XS1138845331	IE	BXDZ9D8	F	ZZ
SEDOL	I	2015/05/08	2015/05/08	1631153	4504736	US011395AB64	ZZ	BXCJ2P4	F	BM
SEDOL	I	2015/05/08	2015/05/08	1631154	4328081	JP387812AE84	ZZ	BXDZ4C2	F	ZZ
SEDOL	I	2015/05/08	2015/05/08	1631155	4215436	JP389680AE30	ZZ	BXDZ4N3	F	ZZ
SEDOL	I	2015/05/08	2015/05/08	1631156	4498548	XS1225012308	IE	BXDZ3J2	F	ZZ
SEDOL	I	2015/05/08	2015/05/08	1631157	4165819	JP303971ADC0	ZZ	BXDZ3S1	F	ZZ
SEDOL	I	2015/05/08	2015/05/08	1631158	4205072	JP304647BE22	ZZ	BXDZ9F0	F	ZZ
SEDOL	I	2015/05/08	2015/05/08	1631159	4492532	XS1193692156	IE	BXDZ3K3	F	ZZ
SEDOL	I	2015/05/08	2015/05/08	1631160	4223001	JP338603AE31	ZZ	BXDZ3T2	F	ZZ
SEDOL	I	2015/05/08	2015/05/08	1631161	4505744	USG0446NAJ30	ZZ	BXDZ2K6	F	ZZ
SEDOL	I	2015/05/08	2015/05/08	1631162	4150666	JP388840ADB7	ZZ	BXDZ961	F	ZZ
SEDOL	I	2015/05/08	2015/05/08	1631163	4207809	JP304647AE23	ZZ	BXDZ9G1	F	ZZ
SEDOL	I	2015/05/08	2015/05/08	1631164	4165825	JP362680BDC3	ZZ	BXDZ455	F	ZZ
SEDOL	I	2015/05/08	2015/05/08	1631165	4505875	US808194AA26	ZZ	BXCJ179	F	US
SEDOL	I	2015/05/08	2015/05/08	1631166	4287435	JP328020AE60	ZZ	BXDZ3V4	F	ZZ
SEDOL	I	2015/05/08	2015/05/08	1631167	4165835	JP362680CDC1	ZZ	BXDZ433	F	ZZ
SEDOL	I	2015/05/08	2015/05/08	1631168	4206356	JP364890CE29	ZZ	BXDZ9H2	F	ZZ
SEDOL	I	2015/05/08	2015/05/08	1631169	4505701	US78454LAL45	ZZ	BXCJ180	F	US
SEDOL	I	2015/05/08	2015/05/08	1631170	4110652	JP304627AD93	ZZ	BXDZ3W5	F	ZZ
SEDOL	I	2015/05/08	2015/05/08	1631171	4275555	JP584118BE52	ZZ	BXDZ983	F	ZZ
SEDOL	I	2015/05/08	2015/05/08	1631172	4165807	JP362680ADC5	ZZ	BXDZ477	F	ZZ
SEDOL	I	2015/05/08	2015/05/08	1631173	4505755	US101137AQ02	ZZ	BXCJ191	F	US
SEDOL	I	2015/05/08	2015/05/08	1631174	4196259	JP304089AE28	ZZ	BXDZ3N6	F	ZZ
SEDOL	I	2015/05/08	2015/05/08	1631175	4222995	JP390200BE38	ZZ	BXDZ4P5	F	ZZ
SEDOL	U	2007/02/03	2015/05/08	270844	499838	US9487418892	US	B1PF7B6	T	US
SEDOL	U	2011/03/31	2015/05/08	970415	1839048	SG7V48954815	SG	B5MKCC8	F	ZZ
SEDOL	D	2012/10/19	2015/05/08	1378714	3908536		ZZ		F	ZZ
SEDOL	U	2015/01/30	2015/05/08	1601211	4376392	NO0010722598	NO	BVTVYH5	F	ZZ
SEDOL	U	2015/04/28	2015/05/08	1628078	4499268	XS1163100230	IE	BX1D5M5	F	ZZ
SEDOL	U	2015/05/04	2015/05/08	1629470	4501410	XS1117297355	IE	BX9BN72	F	ZZ
SEDOL	I	2015/05/08	2015/05/08	1631180	4506339	XS1231138295	IE	BXDZ488	F	ZZ
SEDOL	I	2015/05/08	2015/05/08	1631182	4506350	XS1232307105	IE	BXDZ4K0	F	ZZ
SEDOL	I	2015/05/08	2015/05/08	1631185	4506362	XS1232127032	IE	BXDZ9B6	F	ZZ
SEDOL	I	2015/05/08	2015/05/08	1631186	4506367	XS1231149227	IE	BXDZ499	F	ZZ
SEDOL	I	2015/05/08	2015/05/08	1631187	4506374	XS1231150746	IE	BXDZ4L1	F	ZZ
SEDOL	I	2015/05/08	2015/05/08	1631188	4506379	XS1232197837	IE	BXDZ9C7	F	ZZ
SEDOL	I	2015/05/08	2015/05/08	1631189	4506377	ZAE000202495	ZA	BWB8YP9	F	ZZ
SEDOL	I	2015/05/08	2015/05/08	1631190	4506381	XS1232308509	IE	BXDZ4J9	F	ZZ
SEDOL	I	2015/05/08	2015/05/08	1631191	4506384	XS1232188414	IE	BXDZ994	F	ZZ
SEDOL	I	2015/05/08	2015/05/08	1631192	4506383	MYBUG1200578	ZZ	B8DH1Z5	F	ZZ
SEDOL	I	2015/05/08	2015/05/08	1631193	4506387	ZAE000202503	ZA	BWB8YQ0	F	ZA
SEDOL	I	2015/05/08	2015/05/08	1631194	4506388	ZAE000202511	ZA	BWB8YR1	F	ZA
SEDOL	I	2015/05/08	2015/05/08	1631197	4506420	GB00BDNQDL79	ZZ	BDNQDL7	F	GB
SEDOL	I	2015/05/08	2015/05/08	1631198	4506414	GB00BDNQDC88	ZZ	BDNQDC8	F	GB
SEDOL	I	2015/05/08	2015/05/08	1631200	4506466	USG4121TAB10	IE	BX8ZYR2	F	US
SEDOL	I	2015/05/08	2015/05/08	1631217	4506488	GB00BDNQ1N51	ZZ	BDNQ1N5	F	GB
EDI_ENDOFFILE
