EDI_SDCHG_20150508
TableName	Actflag	Created	Changed	SdChgID	SecID	ISIN	OldCntryCD	EffectiveDate	OldSedol	NewSedol	EventType	OldRcntryCD	RelEventID	NewCntryCD	NewRcntryCD	Notes
SDCHG	I	2015/05/08	2015/05/08	1107071	1840353	US171871AM82	ZZ	2015/05/07	B3LV2R3	B3LV2R3	DEFUNCT	US		ZZ	US	
SDCHG	I	2015/05/08	2015/05/08	1107072	4025860	US75886AAH14	ZZ	2015/05/07	B8GJG08	B8GJG08	DEFUNCT	ZZ		ZZ	ZZ	
SDCHG	I	2015/05/08	2015/05/08	1107074	3305748	US68620QAB59	US	2015/05/07	B67SCJ1	B67SCJ1	DEFUNCT	ZZ		US	ZZ	
SDCHG	I	2015/05/08	2015/05/08	1107075	4232277	US131477AM35	ZZ	2015/05/07	BL10MP4	BL10MP4	DEFUNCT	ZZ		ZZ	ZZ	
SDCHG	I	2015/05/08	2015/05/08	1107087	3753534	XS0778071877	LU	2015/05/07	BVGGXQ5	BVGGXQ5	DEFUNCT	ZZ		LU	ZZ	
SDCHG	I	2015/05/08	2015/05/08	1107088	4433440	CND1000085L9	ZZ	2015/05/07	BXB03Y4	BXB03Y4	DEFUNCT	ZZ		ZZ	ZZ	
SDCHG	I	2015/05/08	2015/05/08	1107090	4426411	DE000A13ST10	DE	2015/05/06	BV8VNB3	BV8VNB3	DEFUNCT	ZZ		DE	ZZ	
SDCHG	I	2015/05/08	2015/05/08	1107092	4499746	US031162BW91	ZZ	2015/05/01	BWTM3C3	BWTM3C3	CORR	US		DE	US	
SDCHG	I	2015/05/08	2015/05/08	1107094	4484851	XS1218432349	ZZ	2015/04/30	BWV6PM7	BWV6PM7	CORR	ZZ		DE	ZZ	
SDCHG	I	2015/05/08	2015/05/08	1107096	4498963	US302635AC17	ZZ	2015/04/30	BX7RT85	BX7RT85	CORR	US		US	US	
SDCHG	I	2015/05/08	2015/05/08	1107097	4498937	US713448CS53	ZZ	2015/04/30	BX7RTL8	BX7RTL8	CORR	US		US	US	
SDCHG	I	2015/05/08	2015/05/08	1107098	4498918	US713448CT37	ZZ	2015/04/30	BWSSM70	BWSSM70	CORR	US		US	US	
SDCHG	I	2015/05/08	2015/05/08	1107099	4498955	US713448CU00	ZZ	2015/04/30	BWSSM81	BWSSM81	CORR	US		DE	US	
SDCHG	I	2015/05/08	2015/05/08	1107100	4498950	US713448CR70	ZZ	2015/04/30	BWSSM69	BWSSM69	CORR	US		US	US	
SDCHG	I	2015/05/08	2015/05/08	1107101	4498887	US882508AZ72	ZZ	2015/05/06	BX7RT41	BX7RT41	CORR	US		DE	US	
SDCHG	I	2015/05/08	2015/05/08	1107102	4499119	US912828K668	ZZ	2015/04/30	BWSSMB4	BWSSMB4	CORR	US		DE	US	
SDCHG	I	2015/05/08	2015/05/08	1107103	4500266	US68389XBB01	ZZ	2015/05/05	BWTM323	BWTM323	CORR	US		US	US	
SDCHG	I	2015/05/08	2015/05/08	1107104	4499748	US031162BX74	ZZ	2015/05/01	BWTM3D4	BWTM3D4	CORR	US		DE	US	
SDCHG	I	2015/05/08	2015/05/08	1107105	4497142	US64952XBU46	ZZ	2015/04/30	BWXTX64	BWXTX64	CORR	US		DE	US	
SDCHG	I	2015/05/08	2015/05/08	1107138	4405799	XS1066382091	ZZ	2015/05/08	BTGMFG3	BTGMFG3	DEFUNCT	ZZ		ZZ	ZZ	
SDCHG	I	2015/05/08	2015/05/08	1107139	4260940	CA13595ZUZ75	ZZ	2015/05/08	BP9DW53	BP9DW53	DEFUNCT	CA		ZZ	CA	
SDCHG	I	2015/05/08	2015/05/08	1107140	4311487	US94988E2K34	ZZ	2015/05/08	BP4WRW7	BP4WRW7	DEFUNCT	US		ZZ	US	
SDCHG	I	2015/05/08	2015/05/08	1107141	4310939	US949748QX81	ZZ	2015/05/08	BP4WPY5	BP4WPY5	DEFUNCT	US		ZZ	US	
SDCHG	I	2015/05/08	2015/05/08	1107150	3815176	MX95FE040004	ZZ	2015/05/08	BN800M4	BN800M4	DEFUNCT	ZZ		ZZ	ZZ	
SDCHG	I	2015/05/08	2015/05/08	1107159	4246597	XS1059074788	ZZ	2015/05/08	BLP5RF0	BLP5RF0	DEFUNCT	GB		ZZ	GB	
SDCHG	I	2015/05/08	2015/05/08	1107162	1898640	CA33564PAA18	ZZ	2015/05/08	B3MVP51	B3MVP51	DEFUNCT	CA		ZZ	CA	
SDCHG	I	2015/05/08	2015/05/08	1107163	1896112	XS0507319522	ZZ	2015/05/08	B45TBH3	B45TBH3	DEFUNCT	ZZ		ZZ	ZZ	
SDCHG	I	2015/05/08	2015/05/08	1107164	1887882	XS0505649912	LU	2015/05/08	B3QBF91	B3QBF91	DEFUNCT	ZZ		LU	ZZ	
SDCHG	I	2015/05/08	2015/05/08	1107166	831045	XS0361338139	ZZ	2015/05/08	B79HHF4	B79HHF4	DEFUNCT	ZZ		ZZ	ZZ	
SDCHG	I	2015/05/08	2015/05/08	1107167	1884185	XS0504423657	ZZ	2015/05/08	B7F32Q2	B7F32Q2	DEFUNCT	ZZ		ZZ	ZZ	
SDCHG	I	2015/05/08	2015/05/08	1107168	3805901	INE909H07719	IN	2015/05/08	BJ38XB5	BJ38XB5	DEFUNCT	ZZ		IN	ZZ	
SDCHG	I	2015/05/08	2015/05/08	1107169	3838141	INE860H07219	IN	2015/05/08	BJ38X48	BJ38X48	DEFUNCT	ZZ		IN	ZZ	
SDCHG	I	2015/05/08	2015/05/08	1107173	139172	GB0009031211	GB	2015/05/08	0903121	0903121	DEFUNCT	GB		GB	GB	
SDCHG	I	2015/05/08	2015/05/08	1107174	823499	XS0360044878	ZZ	2015/05/08	B3BG751	B3BG751	DEFUNCT	ZZ		ZZ	ZZ	
SDCHG	I	2015/05/08	2015/05/08	1107175	1897699	USY05509AA57	SG	2015/05/08	B3XN5G7	B3XN5G7	DEFUNCT	ZZ		SG	ZZ	
SDCHG	I	2015/05/08	2015/05/08	1107176	3733086	CH0183698411	DE	2015/05/08	B8G3P03	B8G3P03	DEFUNCT	ZZ		DE	ZZ	
SDCHG	I	2015/05/08	2015/05/08	1107177	4262379	XS1062935116	IE	2015/05/08	BMHT7T1	BMHT7T1	DEFUNCT	ZZ		IE	ZZ	
SDCHG	I	2015/05/08	2015/05/08	1107178	4246029	XS1057890094	ZZ	2015/05/08	BLNN0M4	BLNN0M4	DEFUNCT	GB		ZZ	GB	
SDCHG	I	2015/05/08	2015/05/08	1107182	4125723	XS0984032648	IE	2015/05/08	BG7ZSR2	BG7ZSR2	DEFUNCT	ZZ		IE	ZZ	
SDCHG	I	2015/05/08	2015/05/08	1107183	4134989	US62944BAP94	LU	2015/05/08	BG6N918	BG6N918	DEFUNCT	NL		LU	NL	
SDCHG	I	2015/05/08	2015/05/08	1107184	4132053	XS0987032173	ZZ	2015/05/08	BFXW0D0	BFXW0D0	DEFUNCT	GB		ZZ	GB	
SDCHG	I	2015/05/08	2015/05/08	1107185	3783739		HK	2015/05/08	B9JF019	B9JF019	DEFUNCT	ZZ		HK	ZZ	
SDCHG	I	2015/05/08	2015/05/08	1107186	4021013	XS0921247549	ZZ	2015/05/08	B9M3689	B9M3689	DEFUNCT	ZZ		ZZ	ZZ	
SDCHG	I	2015/05/08	2015/05/08	1107187	1755584	INE081A07175	IN	2015/05/08	B8FD4N0	B8FD4N0	DEFUNCT	ZZ		IN	ZZ	
SDCHG	I	2015/05/08	2015/05/08	1107189	3733086	CH0183698411	ZZ	2015/05/08	B7PD0M4	B7PD0M4	DEFUNCT	ZZ		ZZ	ZZ	
SDCHG	I	2015/05/08	2015/05/08	1107190	1897702	US057590AA95	SG	2015/05/08	B3YKB47	B3YKB47	DEFUNCT	ZZ		SG	ZZ	
SDCHG	I	2015/05/08	2015/05/08	1107191	1891989	FR0010892521	ZZ	2015/05/08	B68M5Z9	B68M5Z9	DEFUNCT	ZZ		ZZ	ZZ	
SDCHG	I	2015/05/08	2015/05/08	1107192	1809741	XS0493715865	ZZ	2015/05/08	B5NT6B1	B5NT6B1	DEFUNCT	JE		ZZ	JE	
SDCHG	I	2015/05/08	2015/05/08	1107193	822895	XS0359761672	ZZ	2015/05/08	B2RFPM8	B2RFPM8	DEFUNCT	ZZ		ZZ	ZZ	
SDCHG	I	2015/05/08	2015/05/08	1107194	4380681	XS1135877170	ZZ	2015/05/08	BSK4XY2	BSK4XY2	DEFUNCT	ZZ		ZZ	ZZ	
SDCHG	I	2015/05/08	2015/05/08	1107201	4251391	XS1061657182	ZZ	2015/05/08	BLT2GV6	BLT2GV6	DEFUNCT	GB		ZZ	GB	
SDCHG	I	2015/05/08	2015/05/08	1107208	4362606	MYBBE1400512	ZZ	2015/05/08	BRJKZS2	BRJKZS2	DEFUNCT	ZZ		ZZ	ZZ	
SDCHG	I	2015/05/08	2015/05/08	1107209	4316055	DE000HLB1FB0	DE	2015/05/08	BQ0Q9J1	BQ0Q9J1	DEFUNCT	ZZ		DE	ZZ	
SDCHG	I	2015/05/08	2015/05/08	1107210	4266384		ZZ	2015/05/08	BN3ZYW2	BN3ZYW2	DEFUNCT	NG		ZZ	NG	
SDCHG	I	2015/05/08	2015/05/08	1107211	3766558	TW0003303301	TW	2015/05/08	BLT23H1	BLT23H1	DEFUNCT	TW		TW	TW	
SDCHG	I	2015/05/08	2015/05/08	1107212	3766563	TW0003303400	TW	2015/05/08	BLT23J3	BLT23J3	DEFUNCT	TW		TW	TW	
SDCHG	I	2015/05/08	2015/05/08	1107213	3766547	TW0003284204	TW	2015/05/08	BLT20R0	BLT20R0	DEFUNCT	TW		TW	TW	
SDCHG	I	2015/05/08	2015/05/08	1107214	1841839	XS0494085524	ZZ	2015/05/08	B3XNDR4	B3XNDR4	DEFUNCT	ZZ		ZZ	ZZ	
SDCHG	I	2015/05/08	2015/05/08	1107216	1809733	XS0493713738	NO	2015/05/08	B61FV24	B61FV24	DEFUNCT	ZZ		NO	ZZ	
SDCHG	I	2015/05/08	2015/05/08	1107217	1891989	FR0010892521	DE	2015/05/08	B87G459	B87G459	DEFUNCT	ZZ		DE	ZZ	
SDCHG	I	2015/05/08	2015/05/08	1107218	1851280	XS0499944600	LU	2015/05/08	B8FWQ75	B8FWQ75	DEFUNCT	ZZ		LU	ZZ	
SDCHG	I	2015/05/08	2015/05/08	1107219	1925400	NO0010574502	NO	2015/05/08	B7BZBM1	B7BZBM1	DEFUNCT	ZZ		NO	ZZ	
SDCHG	I	2015/05/08	2015/05/08	1107220	3601656	XS0755797056	GB	2015/05/08	B7DRFS9	B7DRFS9	DEFUNCT	ZZ		GB	ZZ	
SDCHG	I	2015/05/08	2015/05/08	1107224	4029539	XS0926920272	ZZ	2015/05/08	B84FZW3	B84FZW3	DEFUNCT	ZZ		ZZ	ZZ	
SDCHG	I	2015/05/08	2015/05/08	1107230	4137063	US05565QCL05	ZZ	2015/05/08	BGCC6H4	BGCC6H4	DEFUNCT	GB		ZZ	GB	
SDCHG	I	2015/05/08	2015/05/08	1107231	4133582	USL34565AA63	ZZ	2015/05/08	BG3FC29	BG3FC29	DEFUNCT	ZZ		ZZ	ZZ	
SDCHG	I	2015/05/08	2015/05/08	1107232	4192696	ARTACU050395	AR	2015/05/08	BKRV3H3	BKRV3H3	DEFUNCT	AR		AR	AR	
SDCHG	I	2015/05/08	2015/05/08	1107233	1895389	XS0507263399	XS	2015/05/08	B585HJ9	B585HJ9	DEFUNCT	ZZ		XS	ZZ	
SDCHG	I	2015/05/08	2015/05/08	1107234	443829	US172967BW09	DE	2015/05/08	B846D55	B846D55	DEFUNCT	US		DE	US	
SDCHG	I	2015/05/08	2015/05/08	1107235	4089306	US62866QAA31	ZZ	2015/05/08	B8K9BW1	B8K9BW1	DEFUNCT	ZZ		ZZ	ZZ	
SDCHG	I	2015/05/08	2015/05/08	1107236	3866171	US62866QAB14	ZZ	2015/05/08	B8K6Q49	B8K6Q49	DEFUNCT	ZZ		ZZ	ZZ	
SDCHG	I	2015/05/08	2015/05/08	1107237	3503275	XS0742245631	DE	2015/05/08	B6ZHY49	B6ZHY49	DEFUNCT	ZZ		DE	ZZ	
SDCHG	I	2015/05/08	2015/05/08	1107238	1897924	XS0507776424	ZZ	2015/05/08	B83J4Q3	B83J4Q3	DEFUNCT	ZZ		ZZ	ZZ	
SDCHG	I	2015/05/08	2015/05/08	1107239	1897929	XS0507777588	ZZ	2015/05/08	B7SR261	B7SR261	DEFUNCT	GB		ZZ	GB	
SDCHG	I	2015/05/08	2015/05/08	1107256	4255871	XS1063406927	IE	2015/05/08	BMH4L49	BMH4L49	DEFUNCT	ZZ		IE	ZZ	
SDCHG	I	2015/05/08	2015/05/08	1107257	4381638	MYBRD1402953	ZZ	2015/05/08	BSPBXR1	BSPBXR1	DEFUNCT	ZZ		ZZ	ZZ	
SDCHG	I	2015/05/08	2015/05/08	1107258	4115598	US94986RDJ77	ZZ	2015/05/08	BPBFTQ7	BPBFTQ7	DEFUNCT	US		ZZ	US	
SDCHG	I	2015/05/08	2015/05/08	1107259	2073196	US949746QF10	ZZ	2015/05/08	BPBFR29	BPBFR29	DEFUNCT	US		ZZ	US	
SDCHG	I	2015/05/08	2015/05/08	1107260	4253588	XS1062141582	IE	2015/05/08	BMHTHB3	BMHTHB3	DEFUNCT	ZZ		IE	ZZ	
SDCHG	I	2015/05/08	2015/05/08	1107261	4262340	XS1062935207	IE	2015/05/08	BMHTHC4	BMHTHC4	DEFUNCT	ZZ		IE	ZZ	
SDCHG	I	2015/05/08	2015/05/08	1107264	4132845	US302107AA59	ZZ	2015/05/08	BFZDFX6	BFZDFX6	DEFUNCT	LU		ZZ	LU	
SDCHG	I	2015/05/08	2015/05/08	1107265	443829	US172967BW09	US	2015/05/08	B8G0D88	B8G0D88	DEFUNCT	US		US	US	
SDCHG	I	2015/05/08	2015/05/08	1107266	1883257	XS0498317576	ZZ	2015/05/08	B3MXCQ7	B3MXCQ7	DEFUNCT	IN		ZZ	IN	
SDCHG	I	2015/05/08	2015/05/08	1107269	1918719	XS0502707853	IT	2015/05/08	B6BWHD8	B6BWHD8	DEFUNCT	ZZ		IT	ZZ	
SDCHG	I	2015/05/08	2015/05/08	1107270	1914536	XS0502703191	ZZ	2015/05/08	B6BWCY4	B6BWCY4	DEFUNCT	ZZ		ZZ	ZZ	
SDCHG	I	2015/05/08	2015/05/08	1107271	1889086	XS0506059061	GB	2015/05/08	B3S0K91	B3S0K91	DEFUNCT	ZZ		GB	ZZ	
SDCHG	I	2015/05/08	2015/05/08	1107272	4402441	XS1150568753	ZZ	2015/05/08	BTDFTR4	BTDFTR4	DEFUNCT	ZZ		ZZ	ZZ	
SDCHG	I	2015/05/08	2015/05/08	1107273	3780817	US62866QAC96	ZZ	2015/05/08	B87DMP6	B87DMP6	DEFUNCT	ZZ		ZZ	ZZ	
SDCHG	I	2015/05/08	2015/05/08	1107274	4156425	KR310503G3B3	KR	2015/05/08	BKWBC82	BKWBC82	DEFUNCT	ZZ		KR	ZZ	
SDCHG	I	2015/05/08	2015/05/08	1107275	4195067	ARBRIO050521	AR	2015/05/08	BKQVJH6	BKQVJH6	DEFUNCT	AR		AR	AR	
SDCHG	I	2015/05/08	2015/05/08	1107276	4376865	US912796FF10	ZZ	2015/05/08	BSD9D66	BSD9D66	DEFUNCT	US		ZZ	US	
SDCHG	I	2015/05/08	2015/05/08	1107277	443829	US172967BW09	LU	2015/05/08	2655118	2655118	DEFUNCT	US		LU	US	
SDCHG	I	2015/05/08	2015/05/08	1107280	4430515	DE000XM0AKN8	DE	2015/05/08	BV0LRT7	BV0LRT7	DEFUNCT	ZZ		DE	ZZ	
SDCHG	I	2015/05/08	2015/05/08	1107281	4435813	JP1745091F25	ZZ	2015/05/08	BVRYRC2	BVRYRC2	DEFUNCT	JP		ZZ	JP	
SDCHG	I	2015/05/08	2015/05/08	1107282	1986223	CND100002LX2	ZZ	2015/05/08	BVV29K4	BVV29K4	DEFUNCT	ZZ		ZZ	ZZ	
SDCHG	I	2015/05/08	2015/05/08	1107283	4440693	GB00BDNNRT45	ZZ	2015/05/08	BDNNRT4	BDNNRT4	DEFUNCT	GB		ZZ	GB	
SDCHG	I	2015/05/08	2015/05/08	1107284	4441598	GB00BDNNSZ79	ZZ	2015/05/08	BDNNSZ7	BDNNSZ7	DEFUNCT	GB		ZZ	GB	
SDCHG	I	2015/05/08	2015/05/08	1107285	4443415	KR380803A528	ZZ	2015/05/08	BVFMP35	BVFMP35	DEFUNCT	ZZ		ZZ	ZZ	
SDCHG	I	2015/05/08	2015/05/08	1107286	4438659	TH0655D7P581	ZZ	2015/05/08	BVYHVR7	BVYHVR7	DEFUNCT	ZZ		ZZ	ZZ	
SDCHG	I	2015/05/08	2015/05/08	1107287	4459806	KR103101A531	KR	2015/05/08	BWBY242	BWBY242	DEFUNCT	ZZ		KR	ZZ	
SDCHG	I	2015/05/08	2015/05/08	1107288	4492538	XS1207722957	IE	2015/05/08	BWNGZL4	BWNGZL4	DEFUNCT	ZZ		IE	ZZ	
SDCHG	I	2015/05/08	2015/05/08	1107289	4478687	GB00BDNPQD75	ZZ	2015/05/08	BDNPQD7	BDNPQD7	DEFUNCT	GB		ZZ	GB	
SDCHG	I	2015/05/08	2015/05/08	1107290	4480675	XS1216086345	ZZ	2015/05/08	BWTVBW6	BWTVBW6	DEFUNCT	ZZ		ZZ	ZZ	
SDCHG	I	2015/05/08	2015/05/08	1107291	4482020	XS1216088390	XS	2015/05/08	BWTVBY8	BWTVBY8	DEFUNCT	ZZ		XS	ZZ	
SDCHG	I	2015/05/08	2015/05/08	1107292	4482313	XS1216089281	ZZ	2015/05/08	BWTVBZ9	BWTVBZ9	DEFUNCT	ZZ		ZZ	ZZ	
SDCHG	I	2015/05/08	2015/05/08	1107293	4483259	XS1216458072	IE	2015/05/08	BVGH120	BVGH120	DEFUNCT	ZZ		IE	ZZ	
SDCHG	I	2015/05/08	2015/05/08	1107294	4492462	NZRBFDF127F8	ZZ	2015/05/08	BWV0FW9	BWV0FW9	DEFUNCT	ZZ		ZZ	ZZ	
SDCHG	I	2015/05/08	2015/05/08	1107295	4485528		IE	2015/05/08	BVYTX66	BVYTX66	DEFUNCT	ZZ		IE	ZZ	
SDCHG	I	2015/05/08	2015/05/08	1107296	4489837	CH0273393600	DE	2015/05/08	BWFDP91	BWFDP91	DEFUNCT	CH		DE	CH	
SDCHG	I	2015/05/08	2015/05/08	1107297	4494410	GB00BDNQ2H66	ZZ	2015/05/08	BDNQ2H6	BDNQ2H6	DEFUNCT	GB		ZZ	GB	
SDCHG	I	2015/05/08	2015/05/08	1107298	4504008	XS1227597090	XS	2015/05/08	BWWC4R2	BWWC4R2	DEFUNCT	ZZ		XS	ZZ	
SDCHG	I	2015/05/08	2015/05/08	1107300	499838	US9487418892	US	2015/05/08	B1PF7B6	B1PF7B6	DEFUNCT	US		US	US	
SDCHG	I	2015/05/08	2015/05/08	1107304	3908536		ZZ	2015/05/08	B8DH1Z5		CLEAN	ZZ		ZZ	ZZ	Security has been marked as Deleted
SDCHG	I	2015/05/08	2015/05/08	1107305	4499268	XS1163100230	ZZ	2015/05/07	BX1D5M5	BX1D5M5	CORR	ZZ		IE	ZZ	
SDCHG	I	2015/05/08	2015/05/08	1107306	4376392	NO0010722598	ZZ	2015/05/08	BVTVYH5	BVTVYH5	CORR	ZZ		NO	ZZ	
SDCHG	I	2015/05/08	2015/05/08	1107307	1839048	SG7V48954815	ZZ	2010/03/16	B5MKCC8	B5MKCC8	CORR	ZZ		SG	ZZ	
SDCHG	I	2015/05/08	2015/05/08	1107308	4501410	XS1117297355	ZZ	2015/05/07	BX9BN72	BX9BN72	CORR	ZZ		IE	ZZ	
EDI_ENDOFFILE
