EDI_REDMT_20150508
TableName	Actflag	Created	Changed	RedmtID	SecID	ISIN	RedemDate	RedemCurrency	RedemPrice	MandOptFlag	PartFinal	RedemType	RedemAmount	RedemPremium	RedemInPercent	PriceAsPercent	PremiumAsPercent	Notes
REDMT	U	2009/01/26	2015/05/08	66095	1289119	US698146AA53	2026/11/01	USD	100000.00000	M	F	AMT	5.60000			100.000000000		
REDMT	I	2015/05/08	2015/05/08	270098	4505988	INE741K07124	2016/10/22	INR		M	P	AMT	150.00000					
REDMT	I	2015/05/08	2015/05/08	270099	4505988	INE741K07124	2017/10/22	INR		M	F	AMT	300.00000					
EDI_ENDOFFILE
