EDI_MTCHG_20150508
TableName	Actflag	Created	Changed	MtChgID	SecID	ISIN	NotificationDate	OldMaturityDate	NewMaturityDate	Reason	EventType	OldMaturityBenchmark	NewMaturityBenchmark	Notes
MTCHG	I	2015/05/08	2015/05/08	43425	4503750	XS1231027464	2015/05/08	2025/05/15	2025/05/12		CLEAN			
MTCHG	I	2015/05/08	2015/05/08	43426	4505768	US29336UAE73	2015/05/07	2015/06/01	2025/06/01		CORR			
MTCHG	I	2015/05/08	2015/05/08	43427	4490206	XS1220079013	2015/05/07	2045/05/08	2045/05/07		CORR			
MTCHG	I	2015/05/08	2015/05/08	43428	554701	US74040XAA28	2003/03/27	2033/07/03	2033/04/03		CLEAN			
MTCHG	I	2015/05/08	2015/05/08	43429	4146524	INE692A09266	2013/11/23	2023/11/20	2023/11/22		CORR			
MTCHG	I	2015/05/08	2015/05/08	43430	1761678	US675919AK05	2007/07/27	2024/08/25	2021/08/25		CORR			
MTCHG	I	2015/05/08	2015/05/08	43431	684540	NO0010316086	2014/05/24	2014/05/24	2015/05/24		CORR			
MTCHG	I	2015/05/08	2015/05/08	43432	684540	NO0010316086	2015/04/27	2015/05/24	2016/05/24		CORR			
MTCHG	I	2015/05/08	2015/05/08	43433	4473241	AT0000A1DNL2	2015/03/26	2018/03/26	2018/03/24		CLEAN			
MTCHG	I	2015/05/08	2015/05/08	43434	3496186	AT000B006507	2012/01/29	2018/01/29	2018/01/27		CLEAN			
EDI_ENDOFFILE
