EDI_WKNCH_20150508
TableName	Actflag	Created	Changed	SecID	EffectiveDate	WknChID	Eventtype	RelEventID	OldWKN	NewWKN
WKNCH	I	2015/05/08	2015/05/08	4463430	2015/04/16	40413	CORR			A1ZYLB
WKNCH	I	2015/05/08	2015/05/08	4444317	2015/04/16	40414	CORR			A1ZWXA
WKNCH	I	2015/05/08	2015/05/08	4449483	2015/04/16	40415	CORR			A1ZW41
WKNCH	I	2015/05/08	2015/05/08	4448259	2015/04/16	40416	CORR			A1ZW84
WKNCH	I	2015/05/08	2015/05/08	4454349	2015/04/16	40417	CORR			A1ZX0B
WKNCH	I	2015/05/08	2015/05/08	4458002	2015/04/16	40418	CORR			A1ZX6Z
WKNCH	I	2015/05/08	2015/05/08	4458949	2015/04/16	40419	CORR			A1ZYC6
WKNCH	I	2015/05/08	2015/05/08	4459204	2015/04/16	40420	CORR			A1ZYDA
WKNCH	I	2015/05/08	2015/05/08	4458765	2015/04/16	40421	CORR			A1ZYDB
WKNCH	I	2015/05/08	2015/05/08	4459213	2015/04/16	40422	CORR			A1ZYDC
WKNCH	I	2015/05/08	2015/05/08	4459218	2015/04/16	40423	CORR			A1ZYDD
WKNCH	I	2015/05/08	2015/05/08	4463447	2015/04/16	40424	CORR			A1ZYKE
WKNCH	I	2015/05/08	2015/05/08	4470598	2015/04/16	40425	CORR			A1VJZD
WKNCH	I	2015/05/08	2015/05/08	4471045	2015/04/16	40426	CORR			A1ZY9H
WKNCH	I	2015/05/08	2015/05/08	4479170	2015/04/16	40427	CORR			A1ZZBH
WKNCH	I	2015/05/08	2015/05/08	4478432	2015/04/16	40428	CORR			A1ZZTE
WKNCH	I	2015/05/08	2015/05/08	4484217	2015/04/17	40429	CORR			A1ZZ0P
WKNCH	I	2015/05/08	2015/05/08	4485366	2015/04/16	40430	CORR			A1VKKT
WKNCH	I	2015/05/08	2015/05/08	4491913	2015/04/23	40431	CORR			A1Z0BX
WKNCH	I	2015/05/08	2015/05/08	4454492	2015/04/16	40432	CORR			A1ZX0L
WKNCH	I	2015/05/08	2015/05/08	4488120	2015/04/16	40433	CORR			A1VKLA
WKNCH	I	2015/05/08	2015/05/08	4472534	2015/04/16	40434	CORR			A1ZY2W
WKNCH	I	2015/05/08	2015/05/08	4469551	2015/04/16	40435	CORR			A1ZX7T
WKNCH	I	2015/05/08	2015/05/08	4472568	2015/04/16	40436	CORR			A1ZY9A
WKNCH	I	2015/05/08	2015/05/08	3908526	2015/04/16	40437	CORR			A1HAVU
WKNCH	I	2015/05/08	2015/05/08	4182887	2015/04/16	40438	CORR			A1ZCJ8
WKNCH	I	2015/05/08	2015/05/08	4466973	2015/04/16	40439	CORR			A1VJX6
WKNCH	I	2015/05/08	2015/05/08	3572861	2015/04/16	40440	CORR			A1UH25
WKNCH	I	2015/05/08	2015/05/08	3965058	2015/04/16	40441	CORR			A1ZU9R
WKNCH	I	2015/05/08	2015/05/08	4473503	2015/04/16	40442	CORR			A1ZZGR
WKNCH	I	2015/05/08	2015/05/08	1108286	2015/04/16	40443	CORR			A0GLJ7
WKNCH	I	2015/05/08	2015/05/08	4419764	2015/04/16	40444	CORR			A1ZULF
WKNCH	I	2015/05/08	2015/05/08	4462014	2015/04/16	40445	CORR			A1ZYE7
WKNCH	I	2015/05/08	2015/05/08	4462016	2015/04/16	40446	CORR			A1ZYHE
WKNCH	I	2015/05/08	2015/05/08	4423035	2015/04/16	40447	CORR			A1ZUV1
WKNCH	I	2015/05/08	2015/05/08	4430847	2015/04/16	40448	CORR			A1ZVF0
WKNCH	I	2015/05/08	2015/05/08	4450216	2015/04/16	40449	CORR			A1ZWUF
WKNCH	I	2015/05/08	2015/05/08	4479633	2015/04/17	40450	CORR			A1ZZRG
WKNCH	I	2015/05/08	2015/05/08	4479618	2015/04/17	40451	CORR			A1ZZRF
WKNCH	I	2015/05/08	2015/05/08	4438964	2015/04/16	40452	CORR			A1ZVN3
WKNCH	I	2015/05/08	2015/05/08	4437143	2015/04/16	40453	CORR			A1ZWNH
EDI_ENDOFFILE
